{
    "locale": "fr",
    "actions": [
    {
      "description": "Watson France",
      "name": "MAIN",
      "fulfillment": {
        "conversationName": "Watson"
      },
      "intent": {
        "name": "actions.intent.MAIN",
        "trigger": {
          "queryPatterns": [
            "Dis à Watson",
            "Demande à Watson"
          ]
        }
      }
    }
  ],
  "conversations": {
    "Watson": {
      "name": "Watson",
      "url": "https://81b13454.ngrok.io/api/google4IBM",
      "in_dialog_intents": [
        {
          "name": "actions.intent.CANCEL"
        }
      ]
    }
  }
}
